Mixed ANOVA
…
## [1] treatment   CL          conc        sheet_names GE          is.outlier 
## [7] is.extreme 
## <0 rows> (or 0-length row.names)

Therefore, no extreme outliers.

normality_test <- data_aov %>%
  group_by('CL', treatment, conc) %>%
  shapiro_test(GE)
normality_test %>% arrange(p)

## # A tibble: 22 x 6
##    treatment            conc  `"CL"` variable statistic      p
##    <chr>                <chr> <chr>  <chr>        <dbl>  <dbl>
##  1 activating factor 42 2     CL     GE           0.733 0.0263
##  2 placebo              7     CL     GE           0.818 0.138 
##  3 activating factor 42 0     CL     GE           0.828 0.162 
##  4 placebo              9     CL     GE           0.840 0.196 
##  5 placebo              8     CL     GE           0.849 0.223 
##  6 placebo              6     CL     GE           0.851 0.230 
##  7 activating factor 42 1     CL     GE           0.868 0.291 
##  8 placebo              10    CL     GE           0.882 0.347 
##  9 placebo              2     CL     GE           0.899 0.424 
## 10 placebo              1     CL     GE           0.901 0.435 
## # ... with 12 more rows
…
pwc2 <- data_aov %>%  
  filter(treatment != "placebo", conc != 5) %>% 
  group_by(treatment, CL) %>% 
  pairwise_t_test(GE ~ conc, p.adjust.method = "bonferroni") %>%
  select(-p, -p.signif)
pwc2_print <- pwc2 %>% 
  filter(p.adj.signif != 'ns') %>% 
  mutate(group1 = as.integer(group1), group2 = as.integer(group2)) %>% 
  arrange(p.adj.signif) %>% 
  arrange(group2) %>% 
  arrange(group1)
pwc2_print

## # A tibble: 25 x 9
##    treatment            CL       .y.   group1 group2    n1    n2   p.adj p.adj~1
##    <chr>                <chr>    <chr>  <int>  <int> <int> <int>   <dbl> <chr>  
##  1 activating factor 42 wild-ty~ GE         0      4     2     2 3.43e-3 **     
##  2 activating factor 42 wild-ty~ GE         0      6     2     2 3.58e-4 ***    
##  3 activating factor 42 wild-ty~ GE         0      7     2     2 6.52e-5 ****   
##  4 activating factor 42 wild-ty~ GE         0      8     2     2 1.04e-5 ****   
##  5 activating factor 42 wild-ty~ GE         0      9     2     2 1.12e-5 ****   
##  6 activating factor 42 wild-ty~ GE         0     10     2     2 2.18e-6 ****   
##  7 activating factor 42 wild-ty~ GE         1      4     2     2 2.5 e-2 *      
##  8 activating factor 42 wild-ty~ GE         1      6     2     2 1.84e-3 **     
##  9 activating factor 42 wild-ty~ GE         1      7     2     2 2.64e-4 ***    
## 10 activating factor 42 wild-ty~ GE         1      8     2     2 3.34e-5 ****   
## # ... with 15 more rows, and abbreviated variable name 1: p.adj.signif
…
